<svg width="512" height="487" viewBox="0 0 512 487" fill="none" xmlns="http://www.w3.org/2000/svg">
<path d="M6.8125 462L6.8125 416.219H12.9375V457.156H31.875L30.9375 462H6.8125ZM59.0625 457.062C58.5417 457.5 57.9062 458.042 57.1562 458.688C56.4271 459.312 55.5938 459.917 54.6562 460.5C53.7396 461.083 52.7292 461.583 51.625 462C50.5417 462.417 49.3854 462.625 48.1562 462.625C47.0521 462.625 45.9688 462.427 44.9062 462.031C43.8646 461.656 42.9375 461.094 42.125 460.344C41.3125 459.573 40.6562 458.625 40.1562 457.5C39.6771 456.375 39.4375 455.083 39.4375 453.625C39.4375 452.729 39.5417 451.823 39.75 450.906C39.9792 449.99 40.3542 449.115 40.875 448.281C41.3958 447.427 42.0729 446.635 42.9062 445.906C43.7604 445.156 44.8021 444.51 46.0312 443.969C47.2812 443.406 48.75 442.969 50.4375 442.656C52.125 442.344 54.0625 442.188 56.25 442.188H59.0625V439.312C59.0625 438.354 58.8958 437.49 58.5625 436.719C58.2292 435.948 57.7604 435.292 57.1562 434.75C56.5729 434.188 55.8646 433.76 55.0312 433.469C54.2188 433.156 53.3125 433 52.3125 433C51.5625 433 50.7604 433.083 49.9062 433.25C49.0729 433.417 48.2292 433.656 47.375 433.969C46.5417 434.281 45.7396 434.646 44.9688 435.062C44.1979 435.479 43.5208 435.938 42.9375 436.438L42.375 436.125L41.125 431.562C42.3333 430.896 43.5 430.354 44.625 429.938C45.75 429.5 46.8229 429.156 47.8438 428.906C48.8854 428.656 49.875 428.49 50.8125 428.406C51.75 428.302 52.6458 428.25 53.5 428.25C57.3958 428.25 60.2812 429.062 62.1562 430.688C64.0521 432.292 65 434.708 65 437.938V454.25C65 454.521 65.0208 454.854 65.0625 455.25C65.1042 455.625 65.1979 455.99 65.3438 456.344C65.5104 456.698 65.7396 457 66.0312 457.25C66.3438 457.5 66.7604 457.625 67.2812 457.625C67.5729 457.625 67.9583 457.583 68.4375 457.5C68.9167 457.396 69.3958 457.229 69.875 457V460.312C68.875 461 67.8646 461.562 66.8438 462C65.8438 462.417 64.875 462.625 63.9375 462.625C63.0833 462.625 62.375 462.448 61.8125 462.094C61.2708 461.76 60.8125 461.323 60.4375 460.781C60.0833 460.24 59.8021 459.646 59.5938 459C59.3854 458.333 59.2083 457.688 59.0625 457.062ZM59.0625 445.812H56.6875C54.25 445.812 52.3021 445.99 50.8438 446.344C49.4062 446.677 48.3021 447.135 47.5312 447.719C46.7812 448.281 46.2812 448.938 46.0312 449.688C45.8021 450.438 45.6875 451.219 45.6875 452.031C45.6875 452.906 45.8125 453.688 46.0625 454.375C46.3125 455.062 46.6562 455.656 47.0938 456.156C47.5521 456.635 48.0938 457 48.7188 457.25C49.3438 457.5 50.0208 457.625 50.75 457.625C51.3125 457.625 51.8854 457.562 52.4688 457.438C53.0729 457.292 53.7083 457.052 54.375 456.719C55.0625 456.365 55.7812 455.896 56.5312 455.312C57.3021 454.729 58.1458 453.979 59.0625 453.062V445.812ZM127.156 457.594C125.99 458.615 124.719 459.458 123.344 460.125C121.969 460.771 120.583 461.281 119.188 461.656C117.792 462.031 116.448 462.281 115.156 462.406C113.885 462.552 112.76 462.625 111.781 462.625C108.76 462.625 105.948 462.094 103.344 461.031C100.74 459.948 98.4688 458.427 96.5312 456.469C94.6146 454.51 93.1042 452.156 92 449.406C90.9167 446.635 90.375 443.552 90.375 440.156C90.375 437.615 90.6875 435.24 91.3125 433.031C91.9375 430.823 92.8125 428.812 93.9375 427C95.0625 425.188 96.3958 423.573 97.9375 422.156C99.4792 420.74 101.177 419.552 103.031 418.594C104.885 417.615 106.854 416.875 108.938 416.375C111.021 415.854 113.156 415.594 115.344 415.594C116.781 415.594 118.51 415.729 120.531 416C122.552 416.25 124.719 416.719 127.031 417.406L125.969 422.844L125.344 423.156C123.052 422.115 120.917 421.406 118.938 421.031C116.979 420.635 115.312 420.438 113.938 420.438C111.438 420.438 109.135 420.927 107.031 421.906C104.927 422.865 103.115 424.188 101.594 425.875C100.073 427.542 98.8854 429.49 98.0312 431.719C97.1771 433.948 96.75 436.323 96.75 438.844C96.75 441.26 97.125 443.604 97.875 445.875C98.6458 448.125 99.7708 450.125 101.25 451.875C102.729 453.604 104.552 455 106.719 456.062C108.885 457.104 111.375 457.625 114.188 457.625C115 457.625 115.896 457.573 116.875 457.469C117.854 457.365 118.896 457.177 120 456.906C121.104 456.615 122.26 456.24 123.469 455.781C124.677 455.302 125.906 454.688 127.156 453.938V457.594ZM148.812 462.625C146.354 462.625 144.167 462.188 142.25 461.312C140.333 460.438 138.708 459.26 137.375 457.781C136.062 456.302 135.052 454.583 134.344 452.625C133.656 450.646 133.312 448.562 133.312 446.375C133.312 443.875 133.75 441.531 134.625 439.344C135.521 437.135 136.75 435.208 138.312 433.562C139.896 431.917 141.771 430.625 143.938 429.688C146.104 428.729 148.458 428.25 151 428.25C153.479 428.25 155.688 428.698 157.625 429.594C159.562 430.469 161.188 431.656 162.5 433.156C163.833 434.656 164.844 436.396 165.531 438.375C166.219 440.333 166.562 442.396 166.562 444.562C166.562 447.083 166.115 449.448 165.219 451.656C164.323 453.844 163.083 455.75 161.5 457.375C159.917 459 158.042 460.281 155.875 461.219C153.708 462.156 151.354 462.625 148.812 462.625ZM150.125 457.875C151.646 457.875 153.021 457.573 154.25 456.969C155.5 456.344 156.562 455.5 157.438 454.438C158.333 453.375 159.021 452.125 159.5 450.688C160 449.229 160.25 447.667 160.25 446C160.25 444.354 160.01 442.76 159.531 441.219C159.052 439.656 158.354 438.271 157.438 437.062C156.542 435.833 155.438 434.854 154.125 434.125C152.812 433.375 151.333 433 149.688 433C148.167 433 146.781 433.312 145.531 433.938C144.302 434.542 143.24 435.385 142.344 436.469C141.469 437.531 140.781 438.792 140.281 440.25C139.802 441.708 139.562 443.271 139.562 444.938C139.562 446.583 139.802 448.188 140.281 449.75C140.76 451.292 141.448 452.667 142.344 453.875C143.26 455.083 144.365 456.052 145.656 456.781C146.969 457.51 148.458 457.875 150.125 457.875ZM188.938 462.625C186.479 462.625 184.292 462.188 182.375 461.312C180.458 460.438 178.833 459.26 177.5 457.781C176.188 456.302 175.177 454.583 174.469 452.625C173.781 450.646 173.438 448.562 173.438 446.375C173.438 443.875 173.875 441.531 174.75 439.344C175.646 437.135 176.875 435.208 178.438 433.562C180.021 431.917 181.896 430.625 184.062 429.688C186.229 428.729 188.583 428.25 191.125 428.25C193.604 428.25 195.812 428.698 197.75 429.594C199.688 430.469 201.312 431.656 202.625 433.156C203.958 434.656 204.969 436.396 205.656 438.375C206.344 440.333 206.688 442.396 206.688 444.562C206.688 447.083 206.24 449.448 205.344 451.656C204.448 453.844 203.208 455.75 201.625 457.375C200.042 459 198.167 460.281 196 461.219C193.833 462.156 191.479 462.625 188.938 462.625ZM190.25 457.875C191.771 457.875 193.146 457.573 194.375 456.969C195.625 456.344 196.688 455.5 197.562 454.438C198.458 453.375 199.146 452.125 199.625 450.688C200.125 449.229 200.375 447.667 200.375 446C200.375 444.354 200.135 442.76 199.656 441.219C199.177 439.656 198.479 438.271 197.562 437.062C196.667 435.833 195.562 434.854 194.25 434.125C192.938 433.375 191.458 433 189.812 433C188.292 433 186.906 433.312 185.656 433.938C184.427 434.542 183.365 435.385 182.469 436.469C181.594 437.531 180.906 438.792 180.406 440.25C179.927 441.708 179.688 443.271 179.688 444.938C179.688 446.583 179.927 448.188 180.406 449.75C180.885 451.292 181.573 452.667 182.469 453.875C183.385 455.083 184.49 456.052 185.781 456.781C187.094 457.51 188.583 457.875 190.25 457.875ZM215.625 428.875H220.25L221.188 438.812C221.458 438.292 221.74 437.76 222.031 437.219C222.344 436.656 222.646 436.115 222.938 435.594C223.25 435.073 223.552 434.583 223.844 434.125C224.135 433.667 224.396 433.271 224.625 432.938C225.083 432.292 225.594 431.688 226.156 431.125C226.74 430.542 227.365 430.042 228.031 429.625C228.698 429.188 229.406 428.854 230.156 428.625C230.906 428.375 231.708 428.25 232.562 428.25C233.167 428.25 233.74 428.323 234.281 428.469C234.823 428.594 235.271 428.812 235.625 429.125L235 434.688C234.625 434.583 234.25 434.521 233.875 434.5C233.521 434.458 233.167 434.438 232.812 434.438C231.333 434.438 230.042 434.677 228.938 435.156C227.854 435.635 226.875 436.292 226 437.125C225.146 437.938 224.365 438.896 223.656 440C222.969 441.104 222.271 442.292 221.562 443.562V462H215.625V428.875ZM264.75 434.562C263.208 433.896 261.823 433.469 260.594 433.281C259.365 433.094 258.354 433 257.562 433C255.708 433 254.052 433.312 252.594 433.938C251.156 434.542 249.938 435.396 248.938 436.5C247.938 437.604 247.177 438.927 246.656 440.469C246.135 442.01 245.875 443.708 245.875 445.562C245.875 447.188 246.094 448.729 246.531 450.188C246.969 451.646 247.594 452.927 248.406 454.031C249.219 455.135 250.198 456.01 251.344 456.656C252.49 457.302 253.771 457.625 255.188 457.625C256.875 457.625 258.51 457.177 260.094 456.281C261.698 455.365 263.25 454.125 264.75 452.562V434.562ZM264.75 411.938H270.688V462H266.062L265.125 456.25C264.417 456.917 263.625 457.625 262.75 458.375C261.875 459.104 260.906 459.792 259.844 460.438C258.781 461.062 257.625 461.583 256.375 462C255.146 462.417 253.833 462.625 252.438 462.625C250.438 462.625 248.646 462.188 247.062 461.312C245.479 460.417 244.135 459.24 243.031 457.781C241.927 456.302 241.083 454.615 240.5 452.719C239.917 450.823 239.625 448.854 239.625 446.812C239.625 444.125 240.104 441.646 241.062 439.375C242.042 437.104 243.375 435.146 245.062 433.5C246.75 431.854 248.729 430.573 251 429.656C253.271 428.719 255.708 428.25 258.312 428.25C259.562 428.25 260.729 428.344 261.812 428.531C262.917 428.698 263.896 428.875 264.75 429.062V411.938ZM295.125 462.625C292.667 462.625 290.479 462.188 288.562 461.312C286.646 460.438 285.021 459.26 283.688 457.781C282.375 456.302 281.365 454.583 280.656 452.625C279.969 450.646 279.625 448.562 279.625 446.375C279.625 443.875 280.062 441.531 280.938 439.344C281.833 437.135 283.062 435.208 284.625 433.562C286.208 431.917 288.083 430.625 290.25 429.688C292.417 428.729 294.771 428.25 297.312 428.25C299.792 428.25 302 428.698 303.938 429.594C305.875 430.469 307.5 431.656 308.812 433.156C310.146 434.656 311.156 436.396 311.844 438.375C312.531 440.333 312.875 442.396 312.875 444.562C312.875 447.083 312.427 449.448 311.531 451.656C310.635 453.844 309.396 455.75 307.812 457.375C306.229 459 304.354 460.281 302.188 461.219C300.021 462.156 297.667 462.625 295.125 462.625ZM296.438 457.875C297.958 457.875 299.333 457.573 300.562 456.969C301.812 456.344 302.875 455.5 303.75 454.438C304.646 453.375 305.333 452.125 305.812 450.688C306.312 449.229 306.562 447.667 306.562 446C306.562 444.354 306.323 442.76 305.844 441.219C305.365 439.656 304.667 438.271 303.75 437.062C302.854 435.833 301.75 434.854 300.438 434.125C299.125 433.375 297.646 433 296 433C294.479 433 293.094 433.312 291.844 433.938C290.615 434.542 289.552 435.385 288.656 436.469C287.781 437.531 287.094 438.792 286.594 440.25C286.115 441.708 285.875 443.271 285.875 444.938C285.875 446.583 286.115 448.188 286.594 449.75C287.073 451.292 287.76 452.667 288.656 453.875C289.573 455.083 290.677 456.052 291.969 456.781C293.281 457.51 294.771 457.875 296.438 457.875ZM321.812 428.875H326.438L327.375 434.625C328.104 433.938 328.938 433.219 329.875 432.469C330.812 431.719 331.823 431.031 332.906 430.406C334.01 429.781 335.177 429.271 336.406 428.875C337.635 428.458 338.896 428.25 340.188 428.25C341.708 428.25 343.073 428.542 344.281 429.125C345.51 429.708 346.552 430.531 347.406 431.594C348.281 432.635 348.948 433.885 349.406 435.344C349.885 436.781 350.125 438.354 350.125 440.062V462H344.188V440.625C344.188 439.417 344.01 438.354 343.656 437.438C343.323 436.5 342.854 435.729 342.25 435.125C341.646 434.5 340.927 434.031 340.094 433.719C339.26 433.406 338.354 433.25 337.375 433.25C335.646 433.25 334.01 433.708 332.469 434.625C330.927 435.542 329.354 436.75 327.75 438.25V462H321.812V428.875ZM361.125 428.875H365.75L366.688 434.625C367.417 433.938 368.25 433.219 369.188 432.469C370.125 431.719 371.135 431.031 372.219 430.406C373.323 429.781 374.49 429.271 375.719 428.875C376.948 428.458 378.208 428.25 379.5 428.25C381.021 428.25 382.385 428.542 383.594 429.125C384.823 429.708 385.865 430.531 386.719 431.594C387.594 432.635 388.26 433.885 388.719 435.344C389.198 436.781 389.438 438.354 389.438 440.062V462H383.5V440.625C383.5 439.417 383.323 438.354 382.969 437.438C382.635 436.5 382.167 435.729 381.562 435.125C380.958 434.5 380.24 434.031 379.406 433.719C378.573 433.406 377.667 433.25 376.688 433.25C374.958 433.25 373.323 433.708 371.781 434.625C370.24 435.542 368.667 436.75 367.062 438.25V462H361.125V428.875ZM426.562 459.188C425.771 459.75 424.854 460.25 423.812 460.688C422.792 461.104 421.729 461.458 420.625 461.75C419.521 462.042 418.406 462.26 417.281 462.406C416.177 462.552 415.146 462.625 414.188 462.625C412.062 462.625 410.042 462.271 408.125 461.562C406.208 460.854 404.531 459.812 403.094 458.438C401.656 457.062 400.51 455.365 399.656 453.344C398.802 451.302 398.375 448.958 398.375 446.312C398.375 443.583 398.823 441.104 399.719 438.875C400.635 436.646 401.854 434.75 403.375 433.188C404.896 431.604 406.646 430.385 408.625 429.531C410.625 428.677 412.719 428.25 414.906 428.25C416.677 428.25 418.323 428.552 419.844 429.156C421.385 429.74 422.719 430.625 423.844 431.812C424.99 433 425.885 434.49 426.531 436.281C427.177 438.052 427.5 440.125 427.5 442.5C427.5 442.979 427.479 443.552 427.438 444.219C427.396 444.885 427.312 445.583 427.188 446.312H404.562C404.562 448.104 404.875 449.708 405.5 451.125C406.146 452.521 407.042 453.708 408.188 454.688C409.354 455.646 410.74 456.375 412.344 456.875C413.948 457.375 415.719 457.625 417.656 457.625C418.135 457.625 418.719 457.604 419.406 457.562C420.094 457.521 420.833 457.438 421.625 457.312C422.417 457.188 423.24 457.01 424.094 456.781C424.948 456.531 425.771 456.208 426.562 455.812V459.188ZM421.875 442.625C421.875 441.062 421.656 439.688 421.219 438.5C420.781 437.292 420.188 436.281 419.438 435.469C418.688 434.656 417.812 434.042 416.812 433.625C415.833 433.208 414.781 433 413.656 433C412.406 433 411.229 433.26 410.125 433.781C409.021 434.281 408.052 434.969 407.219 435.844C406.406 436.719 405.76 437.74 405.281 438.906C404.802 440.073 404.562 441.312 404.562 442.625H421.875ZM436.75 428.875H441.375L442.312 438.812C442.583 438.292 442.865 437.76 443.156 437.219C443.469 436.656 443.771 436.115 444.062 435.594C444.375 435.073 444.677 434.583 444.969 434.125C445.26 433.667 445.521 433.271 445.75 432.938C446.208 432.292 446.719 431.688 447.281 431.125C447.865 430.542 448.49 430.042 449.156 429.625C449.823 429.188 450.531 428.854 451.281 428.625C452.031 428.375 452.833 428.25 453.688 428.25C454.292 428.25 454.865 428.323 455.406 428.469C455.948 428.594 456.396 428.812 456.75 429.125L456.125 434.688C455.75 434.583 455.375 434.521 455 434.5C454.646 434.458 454.292 434.438 453.938 434.438C452.458 434.438 451.167 434.677 450.062 435.156C448.979 435.635 448 436.292 447.125 437.125C446.271 437.938 445.49 438.896 444.781 440C444.094 441.104 443.396 442.292 442.688 443.562V462H436.75V428.875ZM464.094 428.875H470.031V462H464.094V428.875ZM467.094 421.688C466.573 421.688 466.083 421.594 465.625 421.406C465.167 421.219 464.771 420.958 464.438 420.625C464.104 420.292 463.844 419.906 463.656 419.469C463.469 419.01 463.375 418.51 463.375 417.969C463.375 417.427 463.479 416.917 463.688 416.438C463.896 415.958 464.167 415.542 464.5 415.188C464.854 414.833 465.26 414.562 465.719 414.375C466.198 414.167 466.698 414.062 467.219 414.062C467.719 414.062 468.188 414.167 468.625 414.375C469.083 414.562 469.479 414.833 469.812 415.188C470.146 415.542 470.406 415.958 470.594 416.438C470.781 416.896 470.875 417.385 470.875 417.906C470.875 418.469 470.771 418.99 470.562 419.469C470.354 419.927 470.073 420.323 469.719 420.656C469.385 420.969 468.99 421.219 468.531 421.406C468.073 421.594 467.594 421.688 467.094 421.688ZM507.25 459.188C506.458 459.75 505.542 460.25 504.5 460.688C503.479 461.104 502.417 461.458 501.312 461.75C500.208 462.042 499.094 462.26 497.969 462.406C496.865 462.552 495.833 462.625 494.875 462.625C492.75 462.625 490.729 462.271 488.812 461.562C486.896 460.854 485.219 459.812 483.781 458.438C482.344 457.062 481.198 455.365 480.344 453.344C479.49 451.302 479.062 448.958 479.062 446.312C479.062 443.583 479.51 441.104 480.406 438.875C481.323 436.646 482.542 434.75 484.062 433.188C485.583 431.604 487.333 430.385 489.312 429.531C491.312 428.677 493.406 428.25 495.594 428.25C497.365 428.25 499.01 428.552 500.531 429.156C502.073 429.74 503.406 430.625 504.531 431.812C505.677 433 506.573 434.49 507.219 436.281C507.865 438.052 508.188 440.125 508.188 442.5C508.188 442.979 508.167 443.552 508.125 444.219C508.083 444.885 508 445.583 507.875 446.312H485.25C485.25 448.104 485.562 449.708 486.188 451.125C486.833 452.521 487.729 453.708 488.875 454.688C490.042 455.646 491.427 456.375 493.031 456.875C494.635 457.375 496.406 457.625 498.344 457.625C498.823 457.625 499.406 457.604 500.094 457.562C500.781 457.521 501.521 457.438 502.312 457.312C503.104 457.188 503.927 457.01 504.781 456.781C505.635 456.531 506.458 456.208 507.25 455.812V459.188ZM502.562 442.625C502.562 441.062 502.344 439.688 501.906 438.5C501.469 437.292 500.875 436.281 500.125 435.469C499.375 434.656 498.5 434.042 497.5 433.625C496.521 433.208 495.469 433 494.344 433C493.094 433 491.917 433.26 490.812 433.781C489.708 434.281 488.74 434.969 487.906 435.844C487.094 436.719 486.448 437.74 485.969 438.906C485.49 440.073 485.25 441.312 485.25 442.625H502.562Z" fill="#049789"/>
<circle cx="244" cy="200" r="197" fill="white" stroke="#049789" stroke-width="6"/>
<circle cx="244" cy="200" r="181.5" fill="white" stroke="#049789" stroke-width="7" stroke-dasharray="20 20"/>
<path d="M271.203 124.173L262.794 127.195V142.975C281.967 178.901 278.267 168.157 278.603 182.93H330.74L338.14 155.734V110.743C338.14 108.056 336.121 106.042 333.43 106.042C330.74 106.042 328.721 108.056 328.721 110.743V123.166C328.721 125.18 327.04 126.859 325.021 126.859C323.003 126.859 321.321 125.18 321.321 123.166C321.321 120.815 321.321 105.706 321.321 106.378C321.321 103.692 319.303 101.677 316.612 101.677C313.921 101.677 311.903 103.692 311.903 106.378V123.166C311.903 125.18 310.221 126.859 308.203 126.859C306.185 126.859 304.503 125.18 304.503 123.166C304.503 122.158 304.503 96.6407 304.503 98.3195C304.503 95.6334 302.485 93.6189 299.794 93.6189C297.103 93.6189 295.085 95.6334 295.085 98.3195C295.085 98.991 295.085 123.501 295.085 123.166C295.085 125.18 293.403 126.859 291.385 126.859C289.367 126.859 287.685 125.18 287.685 123.166V106.378C288.021 104.027 285.667 102.013 283.312 102.013C280.621 102.013 278.603 104.027 278.603 106.713V139.953C278.603 141.968 276.921 143.647 274.903 143.647C272.885 143.647 271.203 141.968 271.203 139.953V124.173Z" fill="#049789"/>
<path d="M256.067 145.997C255.73 145.326 255.73 144.99 255.73 144.318V124.844C255.73 123.166 256.739 121.823 258.085 121.487L271.539 116.786V108.392H238.912V167.15V167.486H268.176L256.067 145.997Z" fill="#049789"/>
<path d="M214.694 99.6625V93.6189H155.158V96.9765C214.694 96.9765 201.576 95.9692 214.694 99.6625Z" fill="#049789"/>
<path d="M344.867 157.413L342.176 167.485H353.612V108.056H344.867C344.867 109.064 345.203 110.071 345.203 110.742V156.405C345.203 156.741 345.203 157.077 344.867 157.413Z" fill="#049789"/>
<path d="M274.23 301.117H295.757L274.23 289.701V301.117Z" fill="#049789"/>
<path d="M333.767 288.694H330.403L326.031 301.117H333.767V288.694Z" fill="#049789"/>
<path d="M225.794 236.987C225.794 237.323 225.794 237.659 225.794 237.995V285.672H253.04V226.243H222.767L225.794 236.987Z" fill="#049789"/>
<path d="M348.903 255.454C348.23 255.454 323.676 255.454 324.012 255.454C321.994 255.454 320.312 253.775 320.312 251.761C320.312 249.746 321.994 248.067 324.012 248.067H340.83C343.521 248.067 345.54 246.053 345.54 243.367C345.54 240.681 343.521 238.666 340.83 238.666C340.494 238.666 323.34 238.666 324.012 238.666C321.994 238.666 320.312 236.987 320.312 234.973C320.312 232.958 321.994 231.28 324.012 231.28H336.458C339.149 231.28 341.167 229.265 341.167 226.579C341.167 223.893 339.149 221.878 336.458 221.878H291.049L260.44 229.601V281.307C281.294 281.643 266.83 277.95 303.83 297.088H319.976L323.003 288.694H307.194C305.176 288.694 303.494 287.015 303.494 285.001C303.494 282.986 305.176 281.307 307.194 281.307H340.494C343.185 281.307 345.203 279.293 345.203 276.607C345.203 273.921 343.185 271.906 340.494 271.906H323.676C321.658 271.906 319.976 270.227 319.976 268.213C319.976 266.198 321.658 264.52 323.676 264.52C324.685 264.52 350.249 264.52 348.567 264.52C351.258 264.52 353.276 262.505 353.276 259.819C353.612 257.469 351.594 255.454 348.903 255.454Z" fill="#049789"/>
<path d="M231.176 111.75L218.731 108.392C218.058 108.392 217.049 108.392 216.04 107.721L204.267 104.363H154.821C152.131 104.027 150.112 106.378 150.112 108.728C150.112 111.414 152.131 113.429 154.821 113.429H171.64C173.658 113.429 175.34 115.107 175.34 117.122C175.34 119.137 173.658 120.815 171.64 120.815C170.967 120.815 149.776 120.815 150.785 120.815C148.094 120.815 146.076 122.83 146.076 125.516C146.076 128.202 148.094 130.217 150.785 130.217H171.64C173.658 130.217 175.34 131.895 175.34 133.91C175.34 135.924 173.658 137.603 171.64 137.603C170.631 137.603 140.694 137.603 142.376 137.603C139.685 137.603 137.667 139.618 137.667 142.304C137.667 144.99 139.685 147.004 142.376 147.004C150.112 147.004 171.976 147.004 171.64 147.004C173.658 147.004 175.34 148.683 175.34 150.698C175.34 152.712 173.658 154.391 171.64 154.391H150.449C147.758 154.391 145.74 156.406 145.74 159.092C145.74 161.778 147.758 163.792 150.449 163.792H187.785C189.803 163.792 191.485 165.471 191.485 167.486C191.485 169.5 189.803 171.179 187.785 171.179H171.976L175.003 179.573H191.149C220.749 163.792 219.74 163.792 221.421 163.792H231.176V111.75Z" fill="#049789"/>
<path d="M136.321 269.892V250.418C136.321 249.746 136.321 249.075 136.658 248.739L148.767 226.243H134.976V285.672H152.13V277.95L138.676 273.249C137.33 272.578 136.321 271.235 136.321 269.892Z" fill="#049789"/>
<path d="M159.194 211.47C158.858 227.586 162.558 214.492 143.385 251.425V267.205L151.794 270.227V254.447C151.794 252.432 153.476 250.753 155.494 250.753C157.512 250.753 159.194 252.432 159.194 254.447V291.716C159.194 294.402 161.212 296.416 163.903 296.416C166.594 296.416 168.612 294.402 168.612 291.716V270.899C168.612 268.884 170.294 267.205 172.312 267.205C174.33 267.205 176.012 268.884 176.012 270.899C176.012 271.906 176.012 301.789 176.012 300.11C176.012 302.796 178.03 304.81 180.721 304.81C183.412 304.81 185.43 302.796 185.43 300.11C185.43 292.387 185.43 270.563 185.43 270.899C185.43 268.884 187.112 267.205 189.13 267.205C191.149 267.205 192.83 268.884 192.83 270.899V291.716C192.83 294.402 194.849 296.416 197.539 296.416C200.23 296.416 202.249 294.402 202.249 291.716C202.249 291.044 202.249 269.892 202.249 270.899C202.249 268.884 203.93 267.205 205.949 267.205C207.967 267.205 209.649 268.884 209.649 270.899V287.687C209.649 290.373 211.667 292.387 214.358 292.387C217.049 292.387 219.067 290.373 219.067 287.687V238.666L211.667 211.47H159.194Z" fill="#049789"/>
<path d="M333.094 190.317H274.23V218.856C295.085 213.82 280.957 214.827 333.766 215.163V190.653H333.094C333.094 190.317 333.094 190.317 333.094 190.317V190.317Z" fill="#049789"/>
<path d="M214.694 174.872C192.83 186.288 193.84 186.288 192.494 186.288H172.985C171.303 186.288 169.958 185.281 169.621 183.938L164.912 170.507H155.158V204.083H214.694V174.872Z" fill="#049789"/>
</svg>
